<?xml version="1.0" encoding="utf-8"?>
<!-- Generator: Adobe Illustrator 15.0.0, SVG Export Plug-In . SVG Version: 6.00 Build 0)  -->
<!DOCTYPE svg PUBLIC "-//W3C//DTD SVG 1.1//EN" "http://www.w3.org/Graphics/SVG/1.1/DTD/svg11.dtd">
<svg version="1.1" id="Layer_1" xmlns="http://www.w3.org/2000/svg" xmlns:xlink="http://www.w3.org/1999/xlink" x="0px" y="0px"
	 width="800px" height="600px" viewBox="0 0 800 600" enable-background="new 0 0 800 600" xml:space="preserve">
<g>
	<path fill="#FD7400" d="M297.274,315.36c0,0,12.48-25.92,23.04-41.28c10.561-15.36,49.92-43.68,69.601-77.76
		c19.68-34.56,28.319-70.56,26.399-86.88s-14.399-17.28-14.399-17.28s20.159,0.48,19.68,21.6c-0.479,21.12-9.601,61.44-30.24,91.2
		c0,0-10.56,16.32-14.88,21.12c0,0,5.76,16.32,9.6,16.8c3.841,4.32,2.881,13.92,2.881,13.92c-7.681,7.2-4.801,15.84-1.44,22.56
		c3.36,6.72,12,7.2,12,7.2s-5.28-4.8-4.32-7.2s-2.88-8.16-0.479-11.04c2.399-2.4,11.52-4.8,17.279-4.8
		c5.761,0,9.121,1.92,10.561,6.24c1.439,4.32-6.24,14.88-6.24,14.88s10.08-5.28,12.48-6.72c2.4-1.92,1.439-16.32-3.36-20.64
		c-4.8-4.32-15.36-3.84-19.2-4.32s-6.72-14.4-6.72-14.4c3.36-1.92,5.76-23.04,7.681-27.84c1.92-4.8,24-22.08,37.439-48l-1.439,10.56
		c0,0,12.959-14.4,16.799-32.64c3.84-18.24-0.959-25.92-0.959-25.92s-2.881,3.84-8.641,8.64c0,0-4.8-6.72-7.199-10.08l-7.681,6.24
		l-10.08-13.44l10.56,7.68l8.641-8.16l6.72,10.56l10.56-9.6l3.36,12c0,0,6.72-6.72,4.8-16.8c-1.92-10.08-2.399-13.92-2.399-13.92
		s-12.96-0.96-19.2-12.48c-0.96-1.92-1.92-4.32-2.4-6.72c0.48,0,0.961,0,1.44,0c5.28,0.48,11.04-4.8,13.44-6.24
		c2.399-0.96,8.16-2.4,11.52-4.8c1.92-1.44,10.08-12,10.08-12s9.12-7.2,13.439-6.72c0,0,4.801-10.56-4.799-18.24
		c-9.601-7.68-9.601-7.68-9.601-7.68l0.479,8.16c0,0-3.359-5.76-11.52-8.64S459.994,9.6,459.994,9.6l4.32,6.24
		c0,0-8.64-3.36-18.72-2.88s-27.36,9.6-35.521,25.44c-8.159,15.84-21.6,29.28-33.119,40.8c0,0-18.721,11.52-26.881,22.56
		c-8.159,11.04-24.479,32.16-33.6,58.56c-9.12,26.4-13.44,62.88-13.44,62.88s7.681-0.48,15.36-11.04c0,0-2.88,8.16-0.479,7.2
		c2.399-1.44,28.8-10.08,39.84-24.48s24.96-37.92,24.96-37.92s-16.8,34.08-24.48,44.16c-7.68,10.08-32.64,23.52-40.8,25.92
		l-4.32,1.44l-0.479-3.84l-4.8,3.84c0,0-10.561,30.24-10.561,37.44c0,7.2,0,11.52,0.48,15.36c0,0,18.239-35.52,25.92-46.56
		c0,0-22.08,48.96-25.92,63.36C297.755,298.08,294.875,310.08,297.274,315.36z M476.795,40.8c-0.48,0.96-0.48,2.88-1.44,3.84
		c-1.92,2.4-4.8,8.16-7.68,10.08c-2.88,1.92-7.2,2.88-11.04,0.96c-2.88-1.44-9.12-1.92-12-2.4c0-3.84-0.48-6.72-1.92-8.64
		c0,0,6.24-4.32,16.8-4.8C465.274,39.84,471.994,39.36,476.795,40.8z M445.595,66.72c-0.96-3.84-0.96-8.16-0.96-11.52
		c2.4,0.48,7.68,0.96,11.52,2.4c5.28,1.92,11.041,0,12.48-1.44c1.439-1.44,6.72-8.64,8.16-11.52c0.96-0.96,1.439-2.88,1.439-3.84
		c1.92,0.48,2.881,1.44,3.84,2.4c-1.439,1.92-6.24,8.16-8.16,10.56c-1.92,2.4-6.239,5.28-11.039,6.24c-4.32,0.96-9.601,4.8-12,6.24
		C449.914,67.2,447.035,67.2,445.595,66.72z"/>
	<path fill="#FD7400" d="M483.515,97.44c14.399-4.8,20.64-21.12,20.64-33.12s-8.64-19.68-8.64-19.68
		c-12,4.8-18.72,15.36-18.72,15.36s8.16,10.08,9.6,18.72C487.834,87.36,483.994,97.44,483.515,97.44z"/>
	<path fill="#FD7400" d="M464.795,82.08c7.199,2.88,18.72,2.88,18.72,2.88v-4.32l-6.72-4.32l0.959-6.72l-3.84-6.72
		c-9.119-3.36-21.6,10.56-21.6,10.56S457.115,79.68,464.795,82.08z"/>
	<circle fill="#FD7400" cx="462.875" cy="48.48" r="3.84"/>
	<path fill="#FD7400" d="M346.715,257.28c0,0-15.84,138.24-14.4,139.201c1.44,0.96,17.28-41.28,25.92-150.24L346.715,257.28z"/>
	<path fill="#FD7400" d="M306.875,386.4c0,24.479-5.761,80.159-3.36,84c1.92,3.84,7.68-21.12,8.64-44.641
		c0.96-24,8.641-72.96,8.641-72.96s-6.24,72-3.36,78.72c2.88,6.721,6.24-14.399,6.24-14.399l16.319-154.08
		c-11.039,6.24-25.439,30.72-25.439,30.72S306.875,361.92,306.875,386.4z"/>
</g>
</svg>
